^C:\USERS\FURRYMAN\SOURCE\REPOS\SKILLBOX_STL\X64\DEBUG\MAIN.OBJ
C:\PROGRAM FILES (X86)\WINDOWS KITS\10\LIB\10.0.22000.0\UM\X64\KERNEL32.LIB
C:\PROGRAM FILES (X86)\WINDOWS KITS\10\LIB\10.0.22000.0\UM\X64\USER32.LIB
C:\PROGRAM FILES (X86)\WINDOWS KITS\10\LIB\10.0.22000.0\UM\X64\GDI32.LIB
C:\PROGRAM FILES (X86)\WINDOWS KITS\10\LIB\10.0.22000.0\UM\X64\WINSPOOL.LIB
C:\PROGRAM FILES (X86)\WINDOWS KITS\10\LIB\10.0.22000.0\UM\X64\COMDLG32.LIB
C:\PROGRAM FILES (X86)\WINDOWS KITS\10\LIB\10.0.22000.0\UM\X64\ADVAPI32.LIB
C:\PROGRAM FILES (X86)\WINDOWS KITS\10\LIB\10.0.22000.0\UM\X64\SHELL32.LIB
C:\PROGRAM FILES (X86)\WINDOWS KITS\10\LIB\10.0.22000.0\UM\X64\OLE32.LIB
C:\PROGRAM FILES (X86)\WINDOWS KITS\10\LIB\10.0.22000.0\UM\X64\OLEAUT32.LIB
C:\PROGRAM FILES (X86)\WINDOWS KITS\10\LIB\10.0.22000.0\UM\X64\UUID.LIB
C:\PROGRAM FILES (X86)\WINDOWS KITS\10\LIB\10.0.22000.0\UM\X64\ODBC32.LIB
C:\PROGRAM FILES (X86)\WINDOWS KITS\10\LIB\10.0.22000.0\UM\X64\ODBCCP32.LIB
C:\USERS\FURRYMAN\SOURCE\REPOS\SKILLBOX_STL\X64\DEBUG\MAIN.OBJ
C:\WINDOWS\SYSTEM32\TZRES.DLL
C:\WINDOWS\GLOBALIZATION\SORTING\SORTDEFAULT.NLS
C:\PROGRAM FILES\MICROSOFT VISUAL STUDIO\2022\PROFESSIONAL\VC\TOOLS\MSVC\14.31.31103\LIB\X64\MSVCPRTD.LIB
C:\PROGRAM FILES\MICROSOFT VISUAL STUDIO\2022\PROFESSIONAL\VC\TOOLS\MSVC\14.31.31103\LIB\X64\MSVCRTD.LIB
C:\PROGRAM FILES\MICROSOFT VISUAL STUDIO\2022\PROFESSIONAL\VC\TOOLS\MSVC\14.31.31103\LIB\X64\OLDNAMES.LIB
C:\PROGRAM FILES\MICROSOFT VISUAL STUDIO\2022\PROFESSIONAL\VC\TOOLS\MSVC\14.31.31103\LIB\X64\VCRUNTIMED.LIB
C:\PROGRAM FILES (X86)\WINDOWS KITS\10\LIB\10.0.22000.0\UCRT\X64\UCRTD.LIB
C:\USERS\FURRYMAN\SOURCE\REPOS\SKILLBOX_STL\X64\DEBUG\VC143.PDB
