^C:\USERS\FURRYMAN\SOURCE\REPOS\SKILLBOX_STL\X64\DEBUG\MAIN.OBJ
C:\USERS\FURRYMAN\SOURCE\REPOS\SKILLBOX_STL\X64\DEBUG\SKILLBOX_STL.EXE
C:\USERS\FURRYMAN\SOURCE\REPOS\SKILLBOX_STL\X64\DEBUG\SKILLBOX_STL.ILK
C:\USERS\FURRYMAN\SOURCE\REPOS\SKILLBOX_STL\X64\DEBUG\SKILLBOX_STL.PDB
